{
    "name": "rocogs",
    "author": [
        "tekky"
    ],
    "short": "ragnarok cogs for robot",
    "description": "if it weren't for my horse i wouldn't have spent that year in college",
    "install_msg": "it's too late now..."
}
